[
  {
    "guid": "971d374c-7f7a-4eaa-aba0-90b28ce4a3d8", 
    "index": 0, 
    "_id": "5fa1a987689eec58e9cbfa22", 
    "interviewed": false, 
    "user": {
      "picture": "http://placehold.it/32x32", 
      "about": "Elit cillum laborum duis Lorem aute elit quis ipsum commodo ut. Aliquip elit ut nulla in deserunt deserunt pariatur. Sit minim cupidatat pariatur adipisicing cillum nostrud ipsum do elit do. Ex nulla labore quis est duis magna enim reprehenderit id. Cillum culpa aute anim sint Lorem ipsum ea nostrud voluptate dolor. Magna consectetur nostrud eiusmod reprehenderit. Consectetur ut anim deserunt fugiat ipsum exercitation velit mollit id sit eiusmod adipisicing non minim.\r\n", 
      "name": "Kenya Mckenzie", 
      "tags": [
        "elit", 
        "fugiat", 
        "quis", 
        "ipsum", 
        "enim", 
        "mollit", 
        "est"
      ], 
      "gender": "female", 
      "age": 24, 
      "favoriteFruit": "apple", 
      "registered": "2015-12-13T03:05:20 -02:00", 
      "greeting": "Hello, Kenya Mckenzie! You have 3 unread messages.", 
      "longitude": 76.060883, 
      "email": "kenyamckenzie@satiance.com", 
      "eyeColor": "blue", 
      "phone": "+1 (882) 434-3947", 
      "address": "750 Harkness Avenue, Harold, Maryland, 3070", 
      "latitude": 84.13944, 
      "balance": "$3,972.76", 
      "friends": [
        {
          "id": 0, 
          "name": "Elvia Avery"
        }, 
        {
          "id": 1, 
          "name": "Witt Thornton"
        }, 
        {
          "id": 2, 
          "name": "Boyle Leblanc"
        }
      ], 
      "company": "SATIANCE", 
      "isActive": true
    }
  }, 
  {
    "guid": "a322c750-5a82-48d2-9ea8-784d2512e635", 
    "index": 1, 
    "_id": "5fa1a9879cd7fb0c023e39e1", 
    "interviewed": false, 
    "user": {
      "picture": "http://placehold.it/32x32", 
      "about": "Lorem deserunt nisi amet amet enim. Ex fugiat id velit occaecat ad ipsum in officia id mollit sint. Officia labore anim amet voluptate eiusmod irure officia voluptate.\r\n", 
      "name": "Dora Roy", 
      "tags": [
        "eu", 
        "eiusmod", 
        "cillum", 
        "qui", 
        "sit", 
        "deserunt", 
        "labore"
      ], 
      "gender": "female", 
      "age": 28, 
      "favoriteFruit": "strawberry", 
      "registered": "2015-10-13T06:25:14 -03:00", 
      "greeting": "Hello, Dora Roy! You have 6 unread messages.", 
      "longitude": 173.256346, 
      "email": "doraroy@slambda.com", 
      "eyeColor": "blue", 
      "phone": "+1 (993) 573-3167", 
      "address": "769 Berriman Street, Barrelville, Colorado, 501", 
      "latitude": 54.304292, 
      "balance": "$2,361.99", 
      "friends": [
        {
          "id": 0, 
          "name": "Lois Carey"
        }, 
        {
          "id": 1, 
          "name": "Caldwell Oneil"
        }, 
        {
          "id": 2, 
          "name": "Estella Carpenter"
        }
      ], 
      "company": "SLAMBDA", 
      "isActive": true
    }
  }, 
  {
    "guid": "0494a786-9978-4a4c-a9b0-165ad04d4acd", 
    "index": 2, 
    "_id": "5fa1a987360c2837f9ed3239", 
    "interviewed": false, 
    "user": {
      "picture": "http://placehold.it/32x32", 
      "about": "Voluptate pariatur occaecat veniam aute voluptate ea aute. Qui nulla elit nulla id nostrud Lorem. Nostrud cupidatat labore eiusmod et reprehenderit commodo occaecat tempor sint dolore occaecat. Amet officia anim sit non esse minim excepteur mollit irure voluptate. Anim ut non ea dolor consectetur est deserunt nostrud duis excepteur nostrud anim dolor. Sunt officia occaecat anim nisi et reprehenderit laborum dolor reprehenderit ad aliquip eiusmod. Occaecat et dolore pariatur ex laboris ut.\r\n", 
      "name": "Burch Hammond", 
      "tags": [
        "anim", 
        "est", 
        "in", 
        "commodo", 
        "nulla", 
        "ut", 
        "velit"
      ], 
      "gender": "male", 
      "age": 27, 
      "favoriteFruit": "strawberry", 
      "registered": "2018-07-13T10:06:08 -03:00", 
      "greeting": "Hello, Burch Hammond! You have 6 unread messages.", 
      "longitude": 149.308205, 
      "email": "burchhammond@luxuria.com", 
      "eyeColor": "blue", 
      "phone": "+1 (904) 501-3485", 
      "address": "369 Love Lane, Germanton, West Virginia, 228", 
      "latitude": -75.911059, 
      "balance": "$3,546.80", 
      "friends": [
        {
          "id": 0, 
          "name": "Cecilia Dotson"
        }, 
        {
          "id": 1, 
          "name": "Viola Solis"
        }, 
        {
          "id": 2, 
          "name": "Cathy Walters"
        }
      ], 
      "company": "LUXURIA", 
      "isActive": true
    }
  }, 
  {
    "guid": "83265038-102c-4dc3-a5d6-be83eaeb09e7", 
    "index": 3, 
    "_id": "5fa1a987006f35c3b0e3c044", 
    "interviewed": false, 
    "user": {
      "picture": "http://placehold.it/32x32", 
      "about": "Nisi voluptate consequat eiusmod enim officia cupidatat. Exercitation ex velit sunt cillum non. Lorem aute sint ea sint sit minim ut irure fugiat exercitation eu elit nisi. Esse est ea sunt eiusmod eu.\r\n", 
      "name": "Samantha Vincent", 
      "tags": [
        "id", 
        "magna", 
        "Lorem", 
        "nostrud", 
        "sit", 
        "ex", 
        "magna"
      ], 
      "gender": "female", 
      "age": 35, 
      "favoriteFruit": "apple", 
      "registered": "2014-05-06T04:50:43 -03:00", 
      "greeting": "Hello, Samantha Vincent! You have 5 unread messages.", 
      "longitude": -119.622697, 
      "email": "samanthavincent@printspan.com", 
      "eyeColor": "brown", 
      "phone": "+1 (959) 592-2428", 
      "address": "722 Brooklyn Road, Shepardsville, Pennsylvania, 5887", 
      "latitude": -89.035277, 
      "balance": "$2,885.67", 
      "friends": [
        {
          "id": 0, 
          "name": "Stanley Lane"
        }, 
        {
          "id": 1, 
          "name": "Vera Duke"
        }, 
        {
          "id": 2, 
          "name": "Benton Lee"
        }
      ], 
      "company": "PRINTSPAN", 
      "isActive": true
    }
  }, 
  {
    "guid": "3f8980f2-4baa-47ef-be03-f76ded459aa2", 
    "index": 4, 
    "_id": "5fa1a987a79751232c83dc4f", 
    "interviewed": false, 
    "user": {
      "picture": "http://placehold.it/32x32", 
      "about": "Ea nulla do velit incididunt officia pariatur et cillum tempor dolore officia cupidatat. Proident occaecat cupidatat est nisi. Elit id mollit voluptate consectetur excepteur aute. Sit excepteur esse duis elit et ad duis do ad proident sunt dolore occaecat. Qui sit cupidatat commodo mollit in sint tempor eu tempor cillum veniam cupidatat excepteur anim. Ut nostrud nulla duis officia tempor. Aute labore ad magna nostrud.\r\n", 
      "name": "Winters Knapp", 
      "tags": [
        "enim", 
        "aliqua", 
        "cillum", 
        "labore", 
        "dolore", 
        "Lorem", 
        "dolore"
      ], 
      "gender": "male", 
      "age": 21, 
      "favoriteFruit": "apple", 
      "registered": "2015-06-05T10:43:21 -03:00", 
      "greeting": "Hello, Winters Knapp! You have 3 unread messages.", 
      "longitude": 54.401639, 
      "email": "wintersknapp@velity.com", 
      "eyeColor": "blue", 
      "phone": "+1 (909) 477-2275", 
      "address": "317 Buffalo Avenue, Comptche, Guam, 6331", 
      "latitude": 1.357992, 
      "balance": "$2,875.92", 
      "friends": [
        {
          "id": 0, 
          "name": "Glover Moon"
        }, 
        {
          "id": 1, 
          "name": "Katina Schroeder"
        }, 
        {
          "id": 2, 
          "name": "Paulette Guzman"
        }
      ], 
      "company": "VELITY", 
      "isActive": true
    }
  }
]